%YAML 1.1
%TAG !u! tag:unity3d.com,2011:
--- !u!29 &1
OcclusionCullingSettings:
  m_ObjectHideFlags: 0
  serializedVersion: 2
  m_OcclusionBakeSettings:
    smallestOccluder: 5
    smallestHole: 0.25
    backfaceThreshold: 100
  m_SceneGUID: 00000000000000000000000000000000
  m_OcclusionCullingData: {fileID: 0}
--- !u!104 &2
RenderSettings:
  m_ObjectHideFlags: 0
  serializedVersion: 9
  m_Fog: 0
  m_FogColor: {r: 0.5, g: 0.5, b: 0.5, a: 1}
  m_FogMode: 3
  m_FogDensity: 0.01
  m_LinearFogStart: 0
  m_LinearFogEnd: 300
  m_AmbientSkyColor: {r: 0.212, g: 0.227, b: 0.259, a: 1}
  m_AmbientEquatorColor: {r: 0.114, g: 0.125, b: 0.133, a: 1}
  m_AmbientGroundColor: {r: 0.047, g: 0.043, b: 0.035, a: 1}
  m_AmbientIntensity: 1
  m_AmbientMode: 0
  m_SubtractiveShadowColor: {r: 0.42, g: 0.478, b: 0.627, a: 1}
  m_SkyboxMaterial: {fileID: 10304, guid: 0000000000000000f000000000000000, type: 0}
  m_HaloStrength: 0.5
  m_FlareStrength: 1
  m_FlareFadeSpeed: 3
  m_HaloTexture: {fileID: 0}
  m_SpotCookie: {fileID: 10001, guid: 0000000000000000e000000000000000, type: 0}
  m_DefaultReflectionMode: 0
  m_DefaultReflectionResolution: 128
  m_ReflectionBounces: 1
  m_ReflectionIntensity: 1
  m_CustomReflection: {fileID: 0}
  m_Sun: {fileID: 0}
  m_IndirectSpecularColor: {r: 0.37311953, g: 0.38074014, b: 0.3587274, a: 1}
  m_UseRadianceAmbientProbe: 0
--- !u!157 &3
LightmapSettings:
  m_ObjectHideFlags: 0
  serializedVersion: 11
  m_GIWorkflowMode: 1
  m_GISettings:
    serializedVersion: 2
    m_BounceScale: 1
    m_IndirectOutputScale: 1
    m_AlbedoBoost: 1
    m_EnvironmentLightingMode: 0
    m_EnableBakedLightmaps: 1
    m_EnableRealtimeLightmaps: 0
  m_LightmapEditorSettings:
    serializedVersion: 10
    m_Resolution: 2
    m_BakeResolution: 10
    m_AtlasSize: 512
    m_AO: 0
    m_AOMaxDistance: 1
    m_CompAOExponent: 1
    m_CompAOExponentDirect: 0
    m_Padding: 2
    m_LightmapParameters: {fileID: 0}
    m_LightmapsBakeMode: 1
    m_TextureCompression: 1
    m_FinalGather: 0
    m_FinalGatherFiltering: 1
    m_FinalGatherRayCount: 256
    m_ReflectionCompression: 2
    m_MixedBakeMode: 2
    m_BakeBackend: 1
    m_PVRSampling: 1
    m_PVRDirectSampleCount: 32
    m_PVRSampleCount: 256
    m_PVRBounces: 2
    m_PVRFilterTypeDirect: 0
    m_PVRFilterTypeIndirect: 0
    m_PVRFilterTypeAO: 0
    m_PVRFilteringMode: 1
    m_PVRCulling: 1
    m_PVRFilteringGaussRadiusDirect: 1
    m_PVRFilteringGaussRadiusIndirect: 5
    m_PVRFilteringGaussRadiusAO: 2
    m_PVRFilteringAtrousPositionSigmaDirect: 0.5
    m_PVRFilteringAtrousPositionSigmaIndirect: 2
    m_PVRFilteringAtrousPositionSigmaAO: 1
    m_ShowResolutionOverlay: 1
  m_LightingDataAsset: {fileID: 112000002, guid: 4eee721f0417d66409bfc373e0d31809,
    type: 2}
  m_UseShadowmask: 1
--- !u!196 &4
NavMeshSettings:
  serializedVersion: 2
  m_ObjectHideFlags: 0
  m_BuildSettings:
    serializedVersion: 2
    agentTypeID: 0
    agentRadius: 0.5
    agentHeight: 2
    agentSlope: 45
    agentClimb: 0.4
    ledgeDropHeight: 0
    maxJumpAcrossDistance: 0
    minRegionArea: 2
    manualCellSize: 0
    cellSize: 0.16666667
    manualTileSize: 0
    tileSize: 256
    accuratePlacement: 0
    debug:
      m_Flags: 0
  m_NavMeshData: {fileID: 0}
--- !u!1001 &86557199
PrefabInstance:
  m_ObjectHideFlags: 0
  serializedVersion: 2
  m_Modification:
    m_TransformParent: {fileID: 0}
    m_Modifications:
    - target: {fileID: 4329536567867108, guid: 4a4f4b4765d950d44a892f2c72b92da4, type: 3}
      propertyPath: m_LocalPosition.x
      value: 39.87
      objectReference: {fileID: 0}
    - target: {fileID: 4329536567867108, guid: 4a4f4b4765d950d44a892f2c72b92da4, type: 3}
      propertyPath: m_LocalPosition.y
      value: 1.77
      objectReference: {fileID: 0}
    - target: {fileID: 4329536567867108, guid: 4a4f4b4765d950d44a892f2c72b92da4, type: 3}
      propertyPath: m_LocalPosition.z
      value: 0.14
      objectReference: {fileID: 0}
    - target: {fileID: 4329536567867108, guid: 4a4f4b4765d950d44a892f2c72b92da4, type: 3}
      propertyPath: m_LocalRotation.x
      value: 0
      objectReference: {fileID: 0}
    - target: {fileID: 4329536567867108, guid: 4a4f4b4765d950d44a892f2c72b92da4, type: 3}
      propertyPath: m_LocalRotation.y
      value: 0
      objectReference: {fileID: 0}
    - target: {fileID: 4329536567867108, guid: 4a4f4b4765d950d44a892f2c72b92da4, type: 3}
      propertyPath: m_LocalRotation.z
      value: 0
      objectReference: {fileID: 0}
    - target: {fileID: 4329536567867108, guid: 4a4f4b4765d950d44a892f2c72b92da4, type: 3}
      propertyPath: m_LocalRotation.w
      value: 1
      objectReference: {fileID: 0}
    - target: {fileID: 4329536567867108, guid: 4a4f4b4765d950d44a892f2c72b92da4, type: 3}
      propertyPath: m_RootOrder
      value: 7
      objectReference: {fileID: 0}
    m_RemovedComponents: []
  m_SourcePrefab: {fileID: 100100000, guid: 4a4f4b4765d950d44a892f2c72b92da4, type: 3}
--- !u!1001 &249368422
PrefabInstance:
  m_ObjectHideFlags: 0
  serializedVersion: 2
  m_Modification:
    m_TransformParent: {fileID: 0}
    m_Modifications:
    - target: {fileID: 4828872920268998, guid: 61aaf0027f6ec0c458a7b4c08d899f52, type: 3}
      propertyPath: m_LocalPosition.x
      value: -43.33283
      objectReference: {fileID: 0}
    - target: {fileID: 4828872920268998, guid: 61aaf0027f6ec0c458a7b4c08d899f52, type: 3}
      propertyPath: m_LocalPosition.y
      value: 3.029995
      objectReference: {fileID: 0}
    - target: {fileID: 4828872920268998, guid: 61aaf0027f6ec0c458a7b4c08d899f52, type: 3}
      propertyPath: m_LocalPosition.z
      value: 0.16
      objectReference: {fileID: 0}
    - target: {fileID: 4828872920268998, guid: 61aaf0027f6ec0c458a7b4c08d899f52, type: 3}
      propertyPath: m_LocalRotation.x
      value: 0
      objectReference: {fileID: 0}
    - target: {fileID: 4828872920268998, guid: 61aaf0027f6ec0c458a7b4c08d899f52, type: 3}
      propertyPath: m_LocalRotation.y
      value: 0
      objectReference: {fileID: 0}
    - target: {fileID: 4828872920268998, guid: 61aaf0027f6ec0c458a7b4c08d899f52, type: 3}
      propertyPath: m_LocalRotation.z
      value: 0
      objectReference: {fileID: 0}
    - target: {fileID: 4828872920268998, guid: 61aaf0027f6ec0c458a7b4c08d899f52, type: 3}
      propertyPath: m_LocalRotation.w
      value: 1
      objectReference: {fileID: 0}
    - target: {fileID: 4828872920268998, guid: 61aaf0027f6ec0c458a7b4c08d899f52, type: 3}
      propertyPath: m_RootOrder
      value: 6
      objectReference: {fileID: 0}
    m_RemovedComponents: []
  m_SourcePrefab: {fileID: 100100000, guid: 61aaf0027f6ec0c458a7b4c08d899f52, type: 3}
--- !u!1001 &259038311
PrefabInstance:
  m_ObjectHideFlags: 0
  serializedVersion: 2
  m_Modification:
    m_TransformParent: {fileID: 0}
    m_Modifications:
    - target: {fileID: 1456671975008978, guid: b111af940d3baca4ca69ae3d75247039, type: 3}
      propertyPath: m_Name
      value: Spotlight (1)
      objectReference: {fileID: 0}
    - target: {fileID: 4447346433621762, guid: b111af940d3baca4ca69ae3d75247039, type: 3}
      propertyPath: m_LocalPosition.x
      value: -40.93
      objectReference: {fileID: 0}
    - target: {fileID: 4447346433621762, guid: b111af940d3baca4ca69ae3d75247039, type: 3}
      propertyPath: m_LocalPosition.y
      value: 43.67
      objectReference: {fileID: 0}
    - target: {fileID: 4447346433621762, guid: b111af940d3baca4ca69ae3d75247039, type: 3}
      propertyPath: m_LocalPosition.z
      value: 0
      objectReference: {fileID: 0}
    - target: {fileID: 4447346433621762, guid: b111af940d3baca4ca69ae3d75247039, type: 3}
      propertyPath: m_LocalRotation.x
      value: 0
      objectReference: {fileID: 0}
    - target: {fileID: 4447346433621762, guid: b111af940d3baca4ca69ae3d75247039, type: 3}
      propertyPath: m_LocalRotation.y
      value: 0
      objectReference: {fileID: 0}
    - target: {fileID: 4447346433621762, guid: b111af940d3baca4ca69ae3d75247039, type: 3}
      propertyPath: m_LocalRotation.z
      value: 1
      objectReference: {fileID: 0}
    - target: {fileID: 4447346433621762, guid: b111af940d3baca4ca69ae3d75247039, type: 3}
      propertyPath: m_LocalRotation.w
      value: 0
      objectReference: {fileID: 0}
    - target: {fileID: 4447346433621762, guid: b111af940d3baca4ca69ae3d75247039, type: 3}
      propertyPath: m_RootOrder
      value: 17
      objectReference: {fileID: 0}
    - target: {fileID: 4447346433621762, guid: b111af940d3baca4ca69ae3d75247039, type: 3}
      propertyPath: m_LocalEulerAnglesHint.z
      value: 180
      objectReference: {fileID: 0}
    m_RemovedComponents: []
  m_SourcePrefab: {fileID: 100100000, guid: b111af940d3baca4ca69ae3d75247039, type: 3}
--- !u!1001 &288075823
PrefabInstance:
  m_ObjectHideFlags: 0
  serializedVersion: 2
  m_Modification:
    m_TransformParent: {fileID: 0}
    m_Modifications:
    - target: {fileID: 4518624687608800, guid: 39dfd7c0e04cd8349a92f26b1aea8d17, type: 3}
      propertyPath: m_LocalPosition.x
      value: 0
      objectReference: {fileID: 0}
    - target: {fileID: 4518624687608800, guid: 39dfd7c0e04cd8349a92f26b1aea8d17, type: 3}
      propertyPath: m_LocalPosition.y
      value: 48.72
      objectReference: {fileID: 0}
    - target: {fileID: 4518624687608800, guid: 39dfd7c0e04cd8349a92f26b1aea8d17, type: 3}
      propertyPath: m_LocalPosition.z
      value: 29.8
      objectReference: {fileID: 0}
    - target: {fileID: 4518624687608800, guid: 39dfd7c0e04cd8349a92f26b1aea8d17, type: 3}
      propertyPath: m_LocalRotation.x
      value: 0.7071068
      objectReference: {fileID: 0}
    - target: {fileID: 4518624687608800, guid: 39dfd7c0e04cd8349a92f26b1aea8d17, type: 3}
      propertyPath: m_LocalRotation.y
      value: -0
      objectReference: {fileID: 0}
    - target: {fileID: 4518624687608800, guid: 39dfd7c0e04cd8349a92f26b1aea8d17, type: 3}
      propertyPath: m_LocalRotation.z
      value: -0
      objectReference: {fileID: 0}
    - target: {fileID: 4518624687608800, guid: 39dfd7c0e04cd8349a92f26b1aea8d17, type: 3}
      propertyPath: m_LocalRotation.w
      value: -0.7071068
      objectReference: {fileID: 0}
    - target: {fileID: 4518624687608800, guid: 39dfd7c0e04cd8349a92f26b1aea8d17, type: 3}
      propertyPath: m_RootOrder
      value: 11
      objectReference: {fileID: 0}
    m_RemovedComponents: []
  m_SourcePrefab: {fileID: 100100000, guid: 39dfd7c0e04cd8349a92f26b1aea8d17, type: 3}
--- !u!1001 &348541533
PrefabInstance:
  m_ObjectHideFlags: 0
  serializedVersion: 2
  m_Modification:
    m_TransformParent: {fileID: 0}
    m_Modifications:
    - target: {fileID: 1456671975008978, guid: b111af940d3baca4ca69ae3d75247039, type: 3}
      propertyPath: m_Name
      value: Spotlight (3)
      objectReference: {fileID: 0}
    - target: {fileID: 4447346433621762, guid: b111af940d3baca4ca69ae3d75247039, type: 3}
      propertyPath: m_LocalPosition.x
      value: 38
      objectReference: {fileID: 0}
    - target: {fileID: 4447346433621762, guid: b111af940d3baca4ca69ae3d75247039, type: 3}
      propertyPath: m_LocalPosition.y
      value: 43.61
      objectReference: {fileID: 0}
    - target: {fileID: 4447346433621762, guid: b111af940d3baca4ca69ae3d75247039, type: 3}
      propertyPath: m_LocalPosition.z
      value: 0
      objectReference: {fileID: 0}
    - target: {fileID: 4447346433621762, guid: b111af940d3baca4ca69ae3d75247039, type: 3}
      propertyPath: m_LocalRotation.x
      value: 0
      objectReference: {fileID: 0}
    - target: {fileID: 4447346433621762, guid: b111af940d3baca4ca69ae3d75247039, type: 3}
      propertyPath: m_LocalRotation.y
      value: 0
      objectReference: {fileID: 0}
    - target: {fileID: 4447346433621762, guid: b111af940d3baca4ca69ae3d75247039, type: 3}
      propertyPath: m_LocalRotation.z
      value: 1
      objectReference: {fileID: 0}
    - target: {fileID: 4447346433621762, guid: b111af940d3baca4ca69ae3d75247039, type: 3}
      propertyPath: m_LocalRotation.w
      value: 0
      objectReference: {fileID: 0}
    - target: {fileID: 4447346433621762, guid: b111af940d3baca4ca69ae3d75247039, type: 3}
      propertyPath: m_RootOrder
      value: 20
      objectReference: {fileID: 0}
    - target: {fileID: 4447346433621762, guid: b111af940d3baca4ca69ae3d75247039, type: 3}
      propertyPath: m_LocalEulerAnglesHint.z
      value: 180
      objectReference: {fileID: 0}
    - target: {fileID: 108394679055064644, guid: b111af940d3baca4ca69ae3d75247039,
        type: 3}
      propertyPath: m_SpotAngle
      value: 17.5
      objectReference: {fileID: 0}
    - target: {fileID: 108394679055064644, guid: b111af940d3baca4ca69ae3d75247039,
        type: 3}
      propertyPath: m_Range
      value: 45.42258
      objectReference: {fileID: 0}
    - target: {fileID: 108394679055064644, guid: b111af940d3baca4ca69ae3d75247039,
        type: 3}
      propertyPath: m_Intensity
      value: 15.7
      objectReference: {fileID: 0}
    - target: {fileID: 4472622398839094, guid: b111af940d3baca4ca69ae3d75247039, type: 3}
      propertyPath: m_LocalPosition.x
      value: -2.09
      objectReference: {fileID: 0}
    m_RemovedComponents: []
  m_SourcePrefab: {fileID: 100100000, guid: b111af940d3baca4ca69ae3d75247039, type: 3}
--- !u!1001 &386905048
PrefabInstance:
  m_ObjectHideFlags: 0
  serializedVersion: 2
  m_Modification:
    m_TransformParent: {fileID: 0}
    m_Modifications:
    - target: {fileID: 1855055215904090, guid: 543eedbb54162494b8c812b3295086c4, type: 3}
      propertyPath: m_Name
      value: Gap (2)
      objectReference: {fileID: 0}
    - target: {fileID: 4507147494737118, guid: 543eedbb54162494b8c812b3295086c4, type: 3}
      propertyPath: m_LocalPosition.x
      value: -14.73
      objectReference: {fileID: 0}
    - target: {fileID: 4507147494737118, guid: 543eedbb54162494b8c812b3295086c4, type: 3}
      propertyPath: m_LocalPosition.y
      value: 20.28
      objectReference: {fileID: 0}
    - target: {fileID: 4507147494737118, guid: 543eedbb54162494b8c812b3295086c4, type: 3}
      propertyPath: m_LocalPosition.z
      value: 0
      objectReference: {fileID: 0}
    - target: {fileID: 4507147494737118, guid: 543eedbb54162494b8c812b3295086c4, type: 3}
      propertyPath: m_LocalRotation.x
      value: -0
      objectReference: {fileID: 0}
    - target: {fileID: 4507147494737118, guid: 543eedbb54162494b8c812b3295086c4, type: 3}
      propertyPath: m_LocalRotation.y
      value: -0
      objectReference: {fileID: 0}
    - target: {fileID: 4507147494737118, guid: 543eedbb54162494b8c812b3295086c4, type: 3}
      propertyPath: m_LocalRotation.z
      value: 0.7071068
      objectReference: {fileID: 0}
    - target: {fileID: 4507147494737118, guid: 543eedbb54162494b8c812b3295086c4, type: 3}
      propertyPath: m_LocalRotation.w
      value: 0.7071068
      objectReference: {fileID: 0}
    - target: {fileID: 4507147494737118, guid: 543eedbb54162494b8c812b3295086c4, type: 3}
      propertyPath: m_RootOrder
      value: 15
      objectReference: {fileID: 0}
    - target: {fileID: 4437067459288068, guid: 543eedbb54162494b8c812b3295086c4, type: 3}
      propertyPath: m_LocalScale.x
      value: 1.3312
      objectReference: {fileID: 0}
    - target: {fileID: 4437067459288068, guid: 543eedbb54162494b8c812b3295086c4, type: 3}
      propertyPath: m_LocalPosition.x
      value: -0.809
      objectReference: {fileID: 0}
    - target: {fileID: 114375586212406822, guid: 543eedbb54162494b8c812b3295086c4,
        type: 3}
      propertyPath: periodInSeconds
      value: 6
      objectReference: {fileID: 0}
    - target: {fileID: 114375586212406822, guid: 543eedbb54162494b8c812b3295086c4,
        type: 3}
      propertyPath: movementVector.y
      value: 7
      objectReference: {fileID: 0}
    m_RemovedComponents: []
  m_SourcePrefab: {fileID: 100100000, guid: 543eedbb54162494b8c812b3295086c4, type: 3}
--- !u!1001 &435458552
PrefabInstance:
  m_ObjectHideFlags: 0
  serializedVersion: 2
  m_Modification:
    m_TransformParent: {fileID: 0}
    m_Modifications:
    - target: {fileID: 4447346433621762, guid: b111af940d3baca4ca69ae3d75247039, type: 3}
      propertyPath: m_LocalPosition.x
      value: 5.64
      objectReference: {fileID: 0}
    - target: {fileID: 4447346433621762, guid: b111af940d3baca4ca69ae3d75247039, type: 3}
      propertyPath: m_LocalPosition.y
      value: 32.25
      objectReference: {fileID: 0}
    - target: {fileID: 4447346433621762, guid: b111af940d3baca4ca69ae3d75247039, type: 3}
      propertyPath: m_LocalPosition.z
      value: 0
      objectReference: {fileID: 0}
    - target: {fileID: 4447346433621762, guid: b111af940d3baca4ca69ae3d75247039, type: 3}
      propertyPath: m_LocalRotation.x
      value: 0
      objectReference: {fileID: 0}
    - target: {fileID: 4447346433621762, guid: b111af940d3baca4ca69ae3d75247039, type: 3}
      propertyPath: m_LocalRotation.y
      value: 0
      objectReference: {fileID: 0}
    - target: {fileID: 4447346433621762, guid: b111af940d3baca4ca69ae3d75247039, type: 3}
      propertyPath: m_LocalRotation.z
      value: 1
      objectReference: {fileID: 0}
    - target: {fileID: 4447346433621762, guid: b111af940d3baca4ca69ae3d75247039, type: 3}
      propertyPath: m_LocalRotation.w
      value: 0
      objectReference: {fileID: 0}
    - target: {fileID: 4447346433621762, guid: b111af940d3baca4ca69ae3d75247039, type: 3}
      propertyPath: m_RootOrder
      value: 2
      objectReference: {fileID: 0}
    - target: {fileID: 4447346433621762, guid: b111af940d3baca4ca69ae3d75247039, type: 3}
      propertyPath: m_LocalEulerAnglesHint.z
      value: 180
      objectReference: {fileID: 0}
    m_RemovedComponents: []
  m_SourcePrefab: {fileID: 100100000, guid: b111af940d3baca4ca69ae3d75247039, type: 3}
--- !u!1001 &524739869
PrefabInstance:
  m_ObjectHideFlags: 0
  serializedVersion: 2
  m_Modification:
    m_TransformParent: {fileID: 0}
    m_Modifications:
    - target: {fileID: 4701201807561582, guid: 65e5fd144f4c32f4fb0b80a6a5d16f24, type: 3}
      propertyPath: m_LocalPosition.x
      value: 0
      objectReference: {fileID: 0}
    - target: {fileID: 4701201807561582, guid: 65e5fd144f4c32f4fb0b80a6a5d16f24, type: 3}
      propertyPath: m_LocalPosition.y
      value: -15
      objectReference: {fileID: 0}
    - target: {fileID: 4701201807561582, guid: 65e5fd144f4c32f4fb0b80a6a5d16f24, type: 3}
      propertyPath: m_LocalPosition.z
      value: 0
      objectReference: {fileID: 0}
    - target: {fileID: 4701201807561582, guid: 65e5fd144f4c32f4fb0b80a6a5d16f24, type: 3}
      propertyPath: m_LocalRotation.x
      value: 0
      objectReference: {fileID: 0}
    - target: {fileID: 4701201807561582, guid: 65e5fd144f4c32f4fb0b80a6a5d16f24, type: 3}
      propertyPath: m_LocalRotation.y
      value: 0
      objectReference: {fileID: 0}
    - target: {fileID: 4701201807561582, guid: 65e5fd144f4c32f4fb0b80a6a5d16f24, type: 3}
      propertyPath: m_LocalRotation.z
      value: 0
      objectReference: {fileID: 0}
    - target: {fileID: 4701201807561582, guid: 65e5fd144f4c32f4fb0b80a6a5d16f24, type: 3}
      propertyPath: m_LocalRotation.w
      value: 1
      objectReference: {fileID: 0}
    - target: {fileID: 4701201807561582, guid: 65e5fd144f4c32f4fb0b80a6a5d16f24, type: 3}
      propertyPath: m_RootOrder
      value: 10
      objectReference: {fileID: 0}
    - target: {fileID: 4701201807561582, guid: 65e5fd144f4c32f4fb0b80a6a5d16f24, type: 3}
      propertyPath: m_LocalScale.x
      value: 202.79
      objectReference: {fileID: 0}
    m_RemovedComponents: []
  m_SourcePrefab: {fileID: 100100000, guid: 65e5fd144f4c32f4fb0b80a6a5d16f24, type: 3}
--- !u!1001 &626008877
PrefabInstance:
  m_ObjectHideFlags: 0
  serializedVersion: 2
  m_Modification:
    m_TransformParent: {fileID: 0}
    m_Modifications:
    - target: {fileID: 4507147494737118, guid: 543eedbb54162494b8c812b3295086c4, type: 3}
      propertyPath: m_LocalPosition.x
      value: -27.9
      objectReference: {fileID: 0}
    - target: {fileID: 4507147494737118, guid: 543eedbb54162494b8c812b3295086c4, type: 3}
      propertyPath: m_LocalPosition.y
      value: 24.98
      objectReference: {fileID: 0}
    - target: {fileID: 4507147494737118, guid: 543eedbb54162494b8c812b3295086c4, type: 3}
      propertyPath: m_LocalPosition.z
      value: 0
      objectReference: {fileID: 0}
    - target: {fileID: 4507147494737118, guid: 543eedbb54162494b8c812b3295086c4, type: 3}
      propertyPath: m_LocalRotation.x
      value: -0
      objectReference: {fileID: 0}
    - target: {fileID: 4507147494737118, guid: 543eedbb54162494b8c812b3295086c4, type: 3}
      propertyPath: m_LocalRotation.y
      value: -0
      objectReference: {fileID: 0}
    - target: {fileID: 4507147494737118, guid: 543eedbb54162494b8c812b3295086c4, type: 3}
      propertyPath: m_LocalRotation.z
      value: 0.7071068
      objectReference: {fileID: 0}
    - target: {fileID: 4507147494737118, guid: 543eedbb54162494b8c812b3295086c4, type: 3}
      propertyPath: m_LocalRotation.w
      value: 0.7071068
      objectReference: {fileID: 0}
    - target: {fileID: 4507147494737118, guid: 543eedbb54162494b8c812b3295086c4, type: 3}
      propertyPath: m_RootOrder
      value: 14
      objectReference: {fileID: 0}
    - target: {fileID: 114375586212406822, guid: 543eedbb54162494b8c812b3295086c4,
        type: 3}
      propertyPath: periodInSeconds
      value: 8
      objectReference: {fileID: 0}
    m_RemovedComponents: []
  m_SourcePrefab: {fileID: 100100000, guid: 543eedbb54162494b8c812b3295086c4, type: 3}
--- !u!1001 &734366829
PrefabInstance:
  m_ObjectHideFlags: 0
  serializedVersion: 2
  m_Modification:
    m_TransformParent: {fileID: 0}
    m_Modifications:
    - target: {fileID: 1456671975008978, guid: b111af940d3baca4ca69ae3d75247039, type: 3}
      propertyPath: m_Name
      value: Spotlight (4)
      objectReference: {fileID: 0}
    - target: {fileID: 4447346433621762, guid: b111af940d3baca4ca69ae3d75247039, type: 3}
      propertyPath: m_LocalPosition.x
      value: -20.9
      objectReference: {fileID: 0}
    - target: {fileID: 4447346433621762, guid: b111af940d3baca4ca69ae3d75247039, type: 3}
      propertyPath: m_LocalPosition.y
      value: 43.67
      objectReference: {fileID: 0}
    - target: {fileID: 4447346433621762, guid: b111af940d3baca4ca69ae3d75247039, type: 3}
      propertyPath: m_LocalPosition.z
      value: 0
      objectReference: {fileID: 0}
    - target: {fileID: 4447346433621762, guid: b111af940d3baca4ca69ae3d75247039, type: 3}
      propertyPath: m_LocalRotation.x
      value: 0
      objectReference: {fileID: 0}
    - target: {fileID: 4447346433621762, guid: b111af940d3baca4ca69ae3d75247039, type: 3}
      propertyPath: m_LocalRotation.y
      value: 0
      objectReference: {fileID: 0}
    - target: {fileID: 4447346433621762, guid: b111af940d3baca4ca69ae3d75247039, type: 3}
      propertyPath: m_LocalRotation.z
      value: 1
      objectReference: {fileID: 0}
    - target: {fileID: 4447346433621762, guid: b111af940d3baca4ca69ae3d75247039, type: 3}
      propertyPath: m_LocalRotation.w
      value: 0
      objectReference: {fileID: 0}
    - target: {fileID: 4447346433621762, guid: b111af940d3baca4ca69ae3d75247039, type: 3}
      propertyPath: m_RootOrder
      value: 21
      objectReference: {fileID: 0}
    - target: {fileID: 4447346433621762, guid: b111af940d3baca4ca69ae3d75247039, type: 3}
      propertyPath: m_LocalEulerAnglesHint.z
      value: 180
      objectReference: {fileID: 0}
    - target: {fileID: 108394679055064644, guid: b111af940d3baca4ca69ae3d75247039,
        type: 3}
      propertyPath: m_SpotAngle
      value: 24.324692
      objectReference: {fileID: 0}
    m_RemovedComponents: []
  m_SourcePrefab: {fileID: 100100000, guid: b111af940d3baca4ca69ae3d75247039, type: 3}
--- !u!1001 &937501287
PrefabInstance:
  m_ObjectHideFlags: 0
  serializedVersion: 2
  m_Modification:
    m_TransformParent: {fileID: 0}
    m_Modifications:
    - target: {fileID: 1855055215904090, guid: 543eedbb54162494b8c812b3295086c4, type: 3}
      propertyPath: m_Name
      value: Gap (3)
      objectReference: {fileID: 0}
    - target: {fileID: 4507147494737118, guid: 543eedbb54162494b8c812b3295086c4, type: 3}
      propertyPath: m_LocalPosition.x
      value: 27.88
      objectReference: {fileID: 0}
    - target: {fileID: 4507147494737118, guid: 543eedbb54162494b8c812b3295086c4, type: 3}
      propertyPath: m_LocalPosition.y
      value: 24.82
      objectReference: {fileID: 0}
    - target: {fileID: 4507147494737118, guid: 543eedbb54162494b8c812b3295086c4, type: 3}
      propertyPath: m_LocalPosition.z
      value: 0
      objectReference: {fileID: 0}
    - target: {fileID: 4507147494737118, guid: 543eedbb54162494b8c812b3295086c4, type: 3}
      propertyPath: m_LocalRotation.x
      value: 0
      objectReference: {fileID: 0}
    - target: {fileID: 4507147494737118, guid: 543eedbb54162494b8c812b3295086c4, type: 3}
      propertyPath: m_LocalRotation.y
      value: 0
      objectReference: {fileID: 0}
    - target: {fileID: 4507147494737118, guid: 543eedbb54162494b8c812b3295086c4, type: 3}
      propertyPath: m_LocalRotation.z
      value: 0.7071068
      objectReference: {fileID: 0}
    - target: {fileID: 4507147494737118, guid: 543eedbb54162494b8c812b3295086c4, type: 3}
      propertyPath: m_LocalRotation.w
      value: 0.7071068
      objectReference: {fileID: 0}
    - target: {fileID: 4507147494737118, guid: 543eedbb54162494b8c812b3295086c4, type: 3}
      propertyPath: m_RootOrder
      value: 16
      objectReference: {fileID: 0}
    - target: {fileID: 4507147494737118, guid: 543eedbb54162494b8c812b3295086c4, type: 3}
      propertyPath: m_LocalEulerAnglesHint.z
      value: 90
      objectReference: {fileID: 0}
    - target: {fileID: 4081506882020452, guid: 543eedbb54162494b8c812b3295086c4, type: 3}
      propertyPath: m_LocalPosition.y
      value: 0.25
      objectReference: {fileID: 0}
    - target: {fileID: 4081506882020452, guid: 543eedbb54162494b8c812b3295086c4, type: 3}
      propertyPath: m_LocalPosition.x
      value: 0.778
      objectReference: {fileID: 0}
    - target: {fileID: 4081506882020452, guid: 543eedbb54162494b8c812b3295086c4, type: 3}
      propertyPath: m_LocalScale.x
      value: 1.4796556
      objectReference: {fileID: 0}
    - target: {fileID: 4437067459288068, guid: 543eedbb54162494b8c812b3295086c4, type: 3}
      propertyPath: m_LocalPosition.x
      value: -0.755
      objectReference: {fileID: 0}
    - target: {fileID: 4437067459288068, guid: 543eedbb54162494b8c812b3295086c4, type: 3}
      propertyPath: m_LocalPosition.y
      value: -0.412
      objectReference: {fileID: 0}
    - target: {fileID: 114375586212406822, guid: 543eedbb54162494b8c812b3295086c4,
        type: 3}
      propertyPath: periodInSeconds
      value: 3
      objectReference: {fileID: 0}
    - target: {fileID: 114375586212406822, guid: 543eedbb54162494b8c812b3295086c4,
        type: 3}
      propertyPath: movementVector.y
      value: -9
      objectReference: {fileID: 0}
    m_RemovedComponents: []
  m_SourcePrefab: {fileID: 100100000, guid: 543eedbb54162494b8c812b3295086c4, type: 3}
--- !u!1001 &982930057
PrefabInstance:
  m_ObjectHideFlags: 0
  serializedVersion: 2
  m_Modification:
    m_TransformParent: {fileID: 0}
    m_Modifications:
    - target: {fileID: 1456671975008978, guid: b111af940d3baca4ca69ae3d75247039, type: 3}
      propertyPath: m_Name
      value: Spotlight (2)
      objectReference: {fileID: 0}
    - target: {fileID: 4447346433621762, guid: b111af940d3baca4ca69ae3d75247039, type: 3}
      propertyPath: m_LocalPosition.x
      value: 17.790682
      objectReference: {fileID: 0}
    - target: {fileID: 4447346433621762, guid: b111af940d3baca4ca69ae3d75247039, type: 3}
      propertyPath: m_LocalPosition.y
      value: 1.6871256
      objectReference: {fileID: 0}
    - target: {fileID: 4447346433621762, guid: b111af940d3baca4ca69ae3d75247039, type: 3}
      propertyPath: m_LocalPosition.z
      value: 0
      objectReference: {fileID: 0}
    - target: {fileID: 4447346433621762, guid: b111af940d3baca4ca69ae3d75247039, type: 3}
      propertyPath: m_LocalRotation.x
      value: -0
      objectReference: {fileID: 0}
    - target: {fileID: 4447346433621762, guid: b111af940d3baca4ca69ae3d75247039, type: 3}
      propertyPath: m_LocalRotation.y
      value: -0
      objectReference: {fileID: 0}
    - target: {fileID: 4447346433621762, guid: b111af940d3baca4ca69ae3d75247039, type: 3}
      propertyPath: m_LocalRotation.z
      value: -0.30354354
      objectReference: {fileID: 0}
    - target: {fileID: 4447346433621762, guid: b111af940d3baca4ca69ae3d75247039, type: 3}
      propertyPath: m_LocalRotation.w
      value: 0.9528176
      objectReference: {fileID: 0}
    - target: {fileID: 4447346433621762, guid: b111af940d3baca4ca69ae3d75247039, type: 3}
      propertyPath: m_RootOrder
      value: 18
      objectReference: {fileID: 0}
    - target: {fileID: 4447346433621762, guid: b111af940d3baca4ca69ae3d75247039, type: 3}
      propertyPath: m_LocalEulerAnglesHint.z
      value: -35.341003
      objectReference: {fileID: 0}
    - target: {fileID: 108394679055064644, guid: b111af940d3baca4ca69ae3d75247039,
        type: 3}
      propertyPath: m_SpotAngle
      value: 48.6
      objectReference: {fileID: 0}
    - target: {fileID: 108394679055064644, guid: b111af940d3baca4ca69ae3d75247039,
        type: 3}
      propertyPath: m_Range
      value: 37.8
      objectReference: {fileID: 0}
    - target: {fileID: 108394679055064644, guid: b111af940d3baca4ca69ae3d75247039,
        type: 3}
      propertyPath: m_Intensity
      value: 2.7
      objectReference: {fileID: 0}
    m_RemovedComponents: []
  m_SourcePrefab: {fileID: 100100000, guid: b111af940d3baca4ca69ae3d75247039, type: 3}
--- !u!1001 &1016849994
PrefabInstance:
  m_ObjectHideFlags: 0
  serializedVersion: 2
  m_Modification:
    m_TransformParent: {fileID: 0}
    m_Modifications:
    - target: {fileID: 4244842015529776, guid: 02b8bc241ac5ec447bb0c84608e3e23f, type: 3}
      propertyPath: m_LocalPosition.x
      value: 10
      objectReference: {fileID: 0}
    - target: {fileID: 4244842015529776, guid: 02b8bc241ac5ec447bb0c84608e3e23f, type: 3}
      propertyPath: m_LocalPosition.y
      value: 25
      objectReference: {fileID: 0}
    - target: {fileID: 4244842015529776, guid: 02b8bc241ac5ec447bb0c84608e3e23f, type: 3}
      propertyPath: m_LocalPosition.z
      value: 0
      objectReference: {fileID: 0}
    - target: {fileID: 4244842015529776, guid: 02b8bc241ac5ec447bb0c84608e3e23f, type: 3}
      propertyPath: m_LocalRotation.x
      value: 0.40821788
      objectReference: {fileID: 0}
    - target: {fileID: 4244842015529776, guid: 02b8bc241ac5ec447bb0c84608e3e23f, type: 3}
      propertyPath: m_LocalRotation.y
      value: -0.23456968
      objectReference: {fileID: 0}
    - target: {fileID: 4244842015529776, guid: 02b8bc241ac5ec447bb0c84608e3e23f, type: 3}
      propertyPath: m_LocalRotation.z
      value: 0.10938163
      objectReference: {fileID: 0}
    - target: {fileID: 4244842015529776, guid: 02b8bc241ac5ec447bb0c84608e3e23f, type: 3}
      propertyPath: m_LocalRotation.w
      value: 0.8754261
      objectReference: {fileID: 0}
    - target: {fileID: 4244842015529776, guid: 02b8bc241ac5ec447bb0c84608e3e23f, type: 3}
      propertyPath: m_RootOrder
      value: 8
      objectReference: {fileID: 0}
    - target: {fileID: 108227688828290822, guid: 02b8bc241ac5ec447bb0c84608e3e23f,
        type: 3}
      propertyPath: m_Intensity
      value: 1
      objectReference: {fileID: 0}
    - target: {fileID: 108227688828290822, guid: 02b8bc241ac5ec447bb0c84608e3e23f,
        type: 3}
      propertyPath: m_BounceIntensity
      value: 1
      objectReference: {fileID: 0}
    - target: {fileID: 108227688828290822, guid: 02b8bc241ac5ec447bb0c84608e3e23f,
        type: 3}
      propertyPath: m_Enabled
      value: 0
      objectReference: {fileID: 0}
    m_RemovedComponents: []
  m_SourcePrefab: {fileID: 100100000, guid: 02b8bc241ac5ec447bb0c84608e3e23f, type: 3}
--- !u!1001 &1230671398
PrefabInstance:
  m_ObjectHideFlags: 0
  serializedVersion: 2
  m_Modification:
    m_TransformParent: {fileID: 0}
    m_Modifications:
    - target: {fileID: 4865304887739856, guid: 28b08c5c65247734985d377eb1cd4456, type: 3}
      propertyPath: m_LocalPosition.x
      value: 3.38
      objectReference: {fileID: 0}
    - target: {fileID: 4865304887739856, guid: 28b08c5c65247734985d377eb1cd4456, type: 3}
      propertyPath: m_LocalPosition.y
      value: 1.5
      objectReference: {fileID: 0}
    - target: {fileID: 4865304887739856, guid: 28b08c5c65247734985d377eb1cd4456, type: 3}
      propertyPath: m_LocalPosition.z
      value: 0
      objectReference: {fileID: 0}
    - target: {fileID: 4865304887739856, guid: 28b08c5c65247734985d377eb1cd4456, type: 3}
      propertyPath: m_LocalRotation.x
      value: 0.9961947
      objectReference: {fileID: 0}
    - target: {fileID: 4865304887739856, guid: 28b08c5c65247734985d377eb1cd4456, type: 3}
      propertyPath: m_LocalRotation.y
      value: -0.08715578
      objectReference: {fileID: 0}
    - target: {fileID: 4865304887739856, guid: 28b08c5c65247734985d377eb1cd4456, type: 3}
      propertyPath: m_LocalRotation.z
      value: 0
      objectReference: {fileID: 0}
    - target: {fileID: 4865304887739856, guid: 28b08c5c65247734985d377eb1cd4456, type: 3}
      propertyPath: m_LocalRotation.w
      value: 0
      objectReference: {fileID: 0}
    - target: {fileID: 4865304887739856, guid: 28b08c5c65247734985d377eb1cd4456, type: 3}
      propertyPath: m_RootOrder
      value: 3
      objectReference: {fileID: 0}
    - target: {fileID: 4865304887739856, guid: 28b08c5c65247734985d377eb1cd4456, type: 3}
      propertyPath: m_LocalEulerAnglesHint.y
      value: 180
      objectReference: {fileID: 0}
    - target: {fileID: 4865304887739856, guid: 28b08c5c65247734985d377eb1cd4456, type: 3}
      propertyPath: m_LocalEulerAnglesHint.z
      value: 190
      objectReference: {fileID: 0}
    m_RemovedComponents: []
  m_SourcePrefab: {fileID: 100100000, guid: 28b08c5c65247734985d377eb1cd4456, type: 3}
--- !u!1001 &1253287579
PrefabInstance:
  m_ObjectHideFlags: 0
  serializedVersion: 2
  m_Modification:
    m_TransformParent: {fileID: 0}
    m_Modifications:
    - target: {fileID: 1440068804698710, guid: 0044b682ef11c564d9926c9be8aa7e35, type: 3}
      propertyPath: m_Name
      value: Obstacle (1)
      objectReference: {fileID: 0}
    - target: {fileID: 4759628598502154, guid: 0044b682ef11c564d9926c9be8aa7e35, type: 3}
      propertyPath: m_LocalPosition.x
      value: -50.94
      objectReference: {fileID: 0}
    - target: {fileID: 4759628598502154, guid: 0044b682ef11c564d9926c9be8aa7e35, type: 3}
      propertyPath: m_LocalPosition.y
      value: 8
      objectReference: {fileID: 0}
    - target: {fileID: 4759628598502154, guid: 0044b682ef11c564d9926c9be8aa7e35, type: 3}
      propertyPath: m_LocalPosition.z
      value: -11.72
      objectReference: {fileID: 0}
    - target: {fileID: 4759628598502154, guid: 0044b682ef11c564d9926c9be8aa7e35, type: 3}
      propertyPath: m_LocalRotation.x
      value: 0
      objectReference: {fileID: 0}
    - target: {fileID: 4759628598502154, guid: 0044b682ef11c564d9926c9be8aa7e35, type: 3}
      propertyPath: m_LocalRotation.y
      value: 0
      objectReference: {fileID: 0}
    - target: {fileID: 4759628598502154, guid: 0044b682ef11c564d9926c9be8aa7e35, type: 3}
      propertyPath: m_LocalRotation.z
      value: 0
      objectReference: {fileID: 0}
    - target: {fileID: 4759628598502154, guid: 0044b682ef11c564d9926c9be8aa7e35, type: 3}
      propertyPath: m_LocalRotation.w
      value: 1
      objectReference: {fileID: 0}
    - target: {fileID: 4759628598502154, guid: 0044b682ef11c564d9926c9be8aa7e35, type: 3}
      propertyPath: m_RootOrder
      value: 4
      objectReference: {fileID: 0}
    - target: {fileID: 4759628598502154, guid: 0044b682ef11c564d9926c9be8aa7e35, type: 3}
      propertyPath: m_LocalScale.y
      value: 128.24359
      objectReference: {fileID: 0}
    - target: {fileID: 4759628598502154, guid: 0044b682ef11c564d9926c9be8aa7e35, type: 3}
      propertyPath: m_LocalScale.x
      value: 3.6773934
      objectReference: {fileID: 0}
    - target: {fileID: 4759628598502154, guid: 0044b682ef11c564d9926c9be8aa7e35, type: 3}
      propertyPath: m_LocalScale.z
      value: 40.848614
      objectReference: {fileID: 0}
    m_RemovedComponents: []
  m_SourcePrefab: {fileID: 100100000, guid: 0044b682ef11c564d9926c9be8aa7e35, type: 3}
--- !u!1001 &1369766735
PrefabInstance:
  m_ObjectHideFlags: 0
  serializedVersion: 2
  m_Modification:
    m_TransformParent: {fileID: 0}
    m_Modifications:
    - target: {fileID: 4724808072710830, guid: 51800f2fdfc65e748bdca04edf79b625, type: 3}
      propertyPath: m_LocalPosition.x
      value: -44.2
      objectReference: {fileID: 0}
    - target: {fileID: 4724808072710830, guid: 51800f2fdfc65e748bdca04edf79b625, type: 3}
      propertyPath: m_LocalPosition.y
      value: 1.6
      objectReference: {fileID: 0}
    - target: {fileID: 4724808072710830, guid: 51800f2fdfc65e748bdca04edf79b625, type: 3}
      propertyPath: m_LocalPosition.z
      value: 0.14
      objectReference: {fileID: 0}
    - target: {fileID: 4724808072710830, guid: 51800f2fdfc65e748bdca04edf79b625, type: 3}
      propertyPath: m_LocalRotation.x
      value: 0
      objectReference: {fileID: 0}
    - target: {fileID: 4724808072710830, guid: 51800f2fdfc65e748bdca04edf79b625, type: 3}
      propertyPath: m_LocalRotation.y
      value: 0
      objectReference: {fileID: 0}
    - target: {fileID: 4724808072710830, guid: 51800f2fdfc65e748bdca04edf79b625, type: 3}
      propertyPath: m_LocalRotation.z
      value: 0
      objectReference: {fileID: 0}
    - target: {fileID: 4724808072710830, guid: 51800f2fdfc65e748bdca04edf79b625, type: 3}
      propertyPath: m_LocalRotation.w
      value: 1
      objectReference: {fileID: 0}
    - target: {fileID: 4724808072710830, guid: 51800f2fdfc65e748bdca04edf79b625, type: 3}
      propertyPath: m_RootOrder
      value: 9
      objectReference: {fileID: 0}
    m_RemovedComponents: []
  m_SourcePrefab: {fileID: 100100000, guid: 51800f2fdfc65e748bdca04edf79b625, type: 3}
--- !u!1001 &1391787161
PrefabInstance:
  m_ObjectHideFlags: 0
  serializedVersion: 2
  m_Modification:
    m_TransformParent: {fileID: 0}
    m_Modifications:
    - target: {fileID: 1231477821989888, guid: 39dfd7c0e04cd8349a92f26b1aea8d17, type: 3}
      propertyPath: m_Name
      value: Backdrop (1)
      objectReference: {fileID: 0}
    - target: {fileID: 4518624687608800, guid: 39dfd7c0e04cd8349a92f26b1aea8d17, type: 3}
      propertyPath: m_LocalPosition.x
      value: 0
      objectReference: {fileID: 0}
    - target: {fileID: 4518624687608800, guid: 39dfd7c0e04cd8349a92f26b1aea8d17, type: 3}
      propertyPath: m_LocalPosition.y
      value: 48.72
      objectReference: {fileID: 0}
    - target: {fileID: 4518624687608800, guid: 39dfd7c0e04cd8349a92f26b1aea8d17, type: 3}
      propertyPath: m_LocalPosition.z
      value: 29.8
      objectReference: {fileID: 0}
    - target: {fileID: 4518624687608800, guid: 39dfd7c0e04cd8349a92f26b1aea8d17, type: 3}
      propertyPath: m_LocalRotation.x
      value: 0.7071068
      objectReference: {fileID: 0}
    - target: {fileID: 4518624687608800, guid: 39dfd7c0e04cd8349a92f26b1aea8d17, type: 3}
      propertyPath: m_LocalRotation.y
      value: -0
      objectReference: {fileID: 0}
    - target: {fileID: 4518624687608800, guid: 39dfd7c0e04cd8349a92f26b1aea8d17, type: 3}
      propertyPath: m_LocalRotation.z
      value: -0
      objectReference: {fileID: 0}
    - target: {fileID: 4518624687608800, guid: 39dfd7c0e04cd8349a92f26b1aea8d17, type: 3}
      propertyPath: m_LocalRotation.w
      value: -0.7071068
      objectReference: {fileID: 0}
    - target: {fileID: 4518624687608800, guid: 39dfd7c0e04cd8349a92f26b1aea8d17, type: 3}
      propertyPath: m_RootOrder
      value: 13
      objectReference: {fileID: 0}
    m_RemovedComponents: []
  m_SourcePrefab: {fileID: 100100000, guid: 39dfd7c0e04cd8349a92f26b1aea8d17, type: 3}
--- !u!1001 &1526682245
PrefabInstance:
  m_ObjectHideFlags: 0
  serializedVersion: 2
  m_Modification:
    m_TransformParent: {fileID: 0}
    m_Modifications:
    - target: {fileID: 4988743636497964, guid: 2c2a8a116e727354787bd0de4f133b24, type: 3}
      propertyPath: m_LocalPosition.x
      value: 0
      objectReference: {fileID: 0}
    - target: {fileID: 4988743636497964, guid: 2c2a8a116e727354787bd0de4f133b24, type: 3}
      propertyPath: m_LocalPosition.y
      value: 9.13
      objectReference: {fileID: 0}
    - target: {fileID: 4988743636497964, guid: 2c2a8a116e727354787bd0de4f133b24, type: 3}
      propertyPath: m_LocalPosition.z
      value: -37.83
      objectReference: {fileID: 0}
    - target: {fileID: 4988743636497964, guid: 2c2a8a116e727354787bd0de4f133b24, type: 3}
      propertyPath: m_LocalRotation.x
      value: 0
      objectReference: {fileID: 0}
    - target: {fileID: 4988743636497964, guid: 2c2a8a116e727354787bd0de4f133b24, type: 3}
      propertyPath: m_LocalRotation.y
      value: 0
      objectReference: {fileID: 0}
    - target: {fileID: 4988743636497964, guid: 2c2a8a116e727354787bd0de4f133b24, type: 3}
      propertyPath: m_LocalRotation.z
      value: 0
      objectReference: {fileID: 0}
    - target: {fileID: 4988743636497964, guid: 2c2a8a116e727354787bd0de4f133b24, type: 3}
      propertyPath: m_LocalRotation.w
      value: 1
      objectReference: {fileID: 0}
    - target: {fileID: 4988743636497964, guid: 2c2a8a116e727354787bd0de4f133b24, type: 3}
      propertyPath: m_RootOrder
      value: 1
      objectReference: {fileID: 0}
    m_RemovedComponents: []
  m_SourcePrefab: {fileID: 100100000, guid: 2c2a8a116e727354787bd0de4f133b24, type: 3}
--- !u!1001 &1712769849
PrefabInstance:
  m_ObjectHideFlags: 0
  serializedVersion: 2
  m_Modification:
    m_TransformParent: {fileID: 0}
    m_Modifications:
    - target: {fileID: 1459477017829048, guid: 28b08c5c65247734985d377eb1cd4456, type: 3}
      propertyPath: m_Name
      value: S-Obstacle (2)
      objectReference: {fileID: 0}
    - target: {fileID: 4865304887739856, guid: 28b08c5c65247734985d377eb1cd4456, type: 3}
      propertyPath: m_LocalPosition.x
      value: 9.55
      objectReference: {fileID: 0}
    - target: {fileID: 4865304887739856, guid: 28b08c5c65247734985d377eb1cd4456, type: 3}
      propertyPath: m_LocalPosition.y
      value: 36.760002
      objectReference: {fileID: 0}
    - target: {fileID: 4865304887739856, guid: 28b08c5c65247734985d377eb1cd4456, type: 3}
      propertyPath: m_LocalPosition.z
      value: 0
      objectReference: {fileID: 0}
    - target: {fileID: 4865304887739856, guid: 28b08c5c65247734985d377eb1cd4456, type: 3}
      propertyPath: m_LocalRotation.x
      value: 0.38268343
      objectReference: {fileID: 0}
    - target: {fileID: 4865304887739856, guid: 28b08c5c65247734985d377eb1cd4456, type: 3}
      propertyPath: m_LocalRotation.y
      value: 0.92387956
      objectReference: {fileID: 0}
    - target: {fileID: 4865304887739856, guid: 28b08c5c65247734985d377eb1cd4456, type: 3}
      propertyPath: m_LocalRotation.z
      value: 0
      objectReference: {fileID: 0}
    - target: {fileID: 4865304887739856, guid: 28b08c5c65247734985d377eb1cd4456, type: 3}
      propertyPath: m_LocalRotation.w
      value: 0
      objectReference: {fileID: 0}
    - target: {fileID: 4865304887739856, guid: 28b08c5c65247734985d377eb1cd4456, type: 3}
      propertyPath: m_RootOrder
      value: 19
      objectReference: {fileID: 0}
    - target: {fileID: 4865304887739856, guid: 28b08c5c65247734985d377eb1cd4456, type: 3}
      propertyPath: m_LocalEulerAnglesHint.y
      value: 180
      objectReference: {fileID: 0}
    - target: {fileID: 4865304887739856, guid: 28b08c5c65247734985d377eb1cd4456, type: 3}
      propertyPath: m_LocalEulerAnglesHint.z
      value: 45
      objectReference: {fileID: 0}
    m_RemovedComponents: []
  m_SourcePrefab: {fileID: 100100000, guid: 28b08c5c65247734985d377eb1cd4456, type: 3}
--- !u!1001 &1851448419
PrefabInstance:
  m_ObjectHideFlags: 0
  serializedVersion: 2
  m_Modification:
    m_TransformParent: {fileID: 0}
    m_Modifications:
    - target: {fileID: 1440068804698710, guid: 0044b682ef11c564d9926c9be8aa7e35, type: 3}
      propertyPath: m_Name
      value: Obstacle (2)
      objectReference: {fileID: 0}
    - target: {fileID: 4759628598502154, guid: 0044b682ef11c564d9926c9be8aa7e35, type: 3}
      propertyPath: m_LocalPosition.x
      value: 46.54
      objectReference: {fileID: 0}
    - target: {fileID: 4759628598502154, guid: 0044b682ef11c564d9926c9be8aa7e35, type: 3}
      propertyPath: m_LocalPosition.y
      value: 25.04
      objectReference: {fileID: 0}
    - target: {fileID: 4759628598502154, guid: 0044b682ef11c564d9926c9be8aa7e35, type: 3}
      propertyPath: m_LocalPosition.z
      value: -11.2
      objectReference: {fileID: 0}
    - target: {fileID: 4759628598502154, guid: 0044b682ef11c564d9926c9be8aa7e35, type: 3}
      propertyPath: m_LocalRotation.x
      value: 0
      objectReference: {fileID: 0}
    - target: {fileID: 4759628598502154, guid: 0044b682ef11c564d9926c9be8aa7e35, type: 3}
      propertyPath: m_LocalRotation.y
      value: 0
      objectReference: {fileID: 0}
    - target: {fileID: 4759628598502154, guid: 0044b682ef11c564d9926c9be8aa7e35, type: 3}
      propertyPath: m_LocalRotation.z
      value: 0
      objectReference: {fileID: 0}
    - target: {fileID: 4759628598502154, guid: 0044b682ef11c564d9926c9be8aa7e35, type: 3}
      propertyPath: m_LocalRotation.w
      value: 1
      objectReference: {fileID: 0}
    - target: {fileID: 4759628598502154, guid: 0044b682ef11c564d9926c9be8aa7e35, type: 3}
      propertyPath: m_RootOrder
      value: 12
      objectReference: {fileID: 0}
    - target: {fileID: 4759628598502154, guid: 0044b682ef11c564d9926c9be8aa7e35, type: 3}
      propertyPath: m_LocalScale.y
      value: 49.437405
      objectReference: {fileID: 0}
    - target: {fileID: 4759628598502154, guid: 0044b682ef11c564d9926c9be8aa7e35, type: 3}
      propertyPath: m_LocalScale.x
      value: 3.6773934
      objectReference: {fileID: 0}
    - target: {fileID: 4759628598502154, guid: 0044b682ef11c564d9926c9be8aa7e35, type: 3}
      propertyPath: m_LocalScale.z
      value: 37.31075
      objectReference: {fileID: 0}
    m_RemovedComponents: []
  m_SourcePrefab: {fileID: 100100000, guid: 0044b682ef11c564d9926c9be8aa7e35, type: 3}
--- !u!1001 &2083468073
PrefabInstance:
  m_ObjectHideFlags: 0
  serializedVersion: 2
  m_Modification:
    m_TransformParent: {fileID: 0}
    m_Modifications:
    - target: {fileID: 1440068804698710, guid: 0044b682ef11c564d9926c9be8aa7e35, type: 3}
      propertyPath: m_Name
      value: Obstacle (3)
      objectReference: {fileID: 0}
    - target: {fileID: 4759628598502154, guid: 0044b682ef11c564d9926c9be8aa7e35, type: 3}
      propertyPath: m_LocalPosition.x
      value: -2.86
      objectReference: {fileID: 0}
    - target: {fileID: 4759628598502154, guid: 0044b682ef11c564d9926c9be8aa7e35, type: 3}
      propertyPath: m_LocalPosition.y
      value: 1
      objectReference: {fileID: 0}
    - target: {fileID: 4759628598502154, guid: 0044b682ef11c564d9926c9be8aa7e35, type: 3}
      propertyPath: m_LocalPosition.z
      value: -11.25
      objectReference: {fileID: 0}
    - target: {fileID: 4759628598502154, guid: 0044b682ef11c564d9926c9be8aa7e35, type: 3}
      propertyPath: m_LocalRotation.x
      value: 0
      objectReference: {fileID: 0}
    - target: {fileID: 4759628598502154, guid: 0044b682ef11c564d9926c9be8aa7e35, type: 3}
      propertyPath: m_LocalRotation.y
      value: 0
      objectReference: {fileID: 0}
    - target: {fileID: 4759628598502154, guid: 0044b682ef11c564d9926c9be8aa7e35, type: 3}
      propertyPath: m_LocalRotation.z
      value: 0
      objectReference: {fileID: 0}
    - target: {fileID: 4759628598502154, guid: 0044b682ef11c564d9926c9be8aa7e35, type: 3}
      propertyPath: m_LocalRotation.w
      value: 1
      objectReference: {fileID: 0}
    - target: {fileID: 4759628598502154, guid: 0044b682ef11c564d9926c9be8aa7e35, type: 3}
      propertyPath: m_RootOrder
      value: 0
      objectReference: {fileID: 0}
    - target: {fileID: 4759628598502154, guid: 0044b682ef11c564d9926c9be8aa7e35, type: 3}
      propertyPath: m_LocalEulerAnglesHint.x
      value: 0
      objectReference: {fileID: 0}
    - target: {fileID: 4759628598502154, guid: 0044b682ef11c564d9926c9be8aa7e35, type: 3}
      propertyPath: m_LocalEulerAnglesHint.y
      value: 0
      objectReference: {fileID: 0}
    - target: {fileID: 4759628598502154, guid: 0044b682ef11c564d9926c9be8aa7e35, type: 3}
      propertyPath: m_LocalEulerAnglesHint.z
      value: 0
      objectReference: {fileID: 0}
    - target: {fileID: 4759628598502154, guid: 0044b682ef11c564d9926c9be8aa7e35, type: 3}
      propertyPath: m_LocalScale.x
      value: 97.14079
      objectReference: {fileID: 0}
    - target: {fileID: 4759628598502154, guid: 0044b682ef11c564d9926c9be8aa7e35, type: 3}
      propertyPath: m_LocalScale.z
      value: 38.893368
      objectReference: {fileID: 0}
    m_RemovedComponents: []
  m_SourcePrefab: {fileID: 100100000, guid: 0044b682ef11c564d9926c9be8aa7e35, type: 3}
--- !u!1001 &2088568113
PrefabInstance:
  m_ObjectHideFlags: 0
  serializedVersion: 2
  m_Modification:
    m_TransformParent: {fileID: 0}
    m_Modifications:
    - target: {fileID: 4759628598502154, guid: 0044b682ef11c564d9926c9be8aa7e35, type: 3}
      propertyPath: m_LocalPosition.x
      value: -2.4
      objectReference: {fileID: 0}
    - target: {fileID: 4759628598502154, guid: 0044b682ef11c564d9926c9be8aa7e35, type: 3}
      propertyPath: m_LocalPosition.y
      value: 56.3
      objectReference: {fileID: 0}
    - target: {fileID: 4759628598502154, guid: 0044b682ef11c564d9926c9be8aa7e35, type: 3}
      propertyPath: m_LocalPosition.z
      value: -0.5
      objectReference: {fileID: 0}
    - target: {fileID: 4759628598502154, guid: 0044b682ef11c564d9926c9be8aa7e35, type: 3}
      propertyPath: m_LocalRotation.x
      value: 0
      objectReference: {fileID: 0}
    - target: {fileID: 4759628598502154, guid: 0044b682ef11c564d9926c9be8aa7e35, type: 3}
      propertyPath: m_LocalRotation.y
      value: 0
      objectReference: {fileID: 0}
    - target: {fileID: 4759628598502154, guid: 0044b682ef11c564d9926c9be8aa7e35, type: 3}
      propertyPath: m_LocalRotation.z
      value: 0
      objectReference: {fileID: 0}
    - target: {fileID: 4759628598502154, guid: 0044b682ef11c564d9926c9be8aa7e35, type: 3}
      propertyPath: m_LocalRotation.w
      value: 1
      objectReference: {fileID: 0}
    - target: {fileID: 4759628598502154, guid: 0044b682ef11c564d9926c9be8aa7e35, type: 3}
      propertyPath: m_RootOrder
      value: 5
      objectReference: {fileID: 0}
    - target: {fileID: 4759628598502154, guid: 0044b682ef11c564d9926c9be8aa7e35, type: 3}
      propertyPath: m_LocalScale.x
      value: 94.89877
      objectReference: {fileID: 0}
    - target: {fileID: 4759628598502154, guid: 0044b682ef11c564d9926c9be8aa7e35, type: 3}
      propertyPath: m_LocalScale.z
      value: 12
      objectReference: {fileID: 0}
    - target: {fileID: 4759628598502154, guid: 0044b682ef11c564d9926c9be8aa7e35, type: 3}
      propertyPath: m_LocalScale.y
      value: 25
      objectReference: {fileID: 0}
    m_RemovedComponents: []
  m_SourcePrefab: {fileID: 100100000, guid: 0044b682ef11c564d9926c9be8aa7e35, type: 3}
